FinalMelt
…
Year 2016 saw the second most amount of people leave from Loras at a total of 10. In looking at the apparent temperature for the months of August and September, the hours from 10:00am to 08:00pm saw apparent temperatures above 90 degrees F. These hours also saw the lowest wind speeds, which makes for an extremely uncomfortable living experience. The nights and into the mornings saw high humidity levels with apparent temperatures around the 70 degree F mark. With humid nights into hot and stale afternoons, and no air conditioning in the residence halls, it is no surprise that 10 students decided to leave.

cleanWeather2016 %>% group_by(HOUR) %>% summarise(MeanTemp=mean(apparentTemperature))

## # A tibble: 24 x 2
##     HOUR MeanTemp
##    <int>    <dbl>
##  1     0     67.7
##  2     1     67.0
##  3     2     66.2
##  4     3     65.5
##  5     4     64.9
##  6     5     64.4
##  7     6     63.7
##  8     7     63.6
##  9     8     65.3
## 10     9     67.8
## # ... with 14 more rows
…
2017 was the second year with the lowest percentage of people who dropped with only 7 of the 339 leaving for a 2.064897% drop rate. As for temperature, August is a more regular month with apparent temperatures that go from 54F to 82F, compare to Septembers apparent temperatures that range from 46F to 87F. Humidity is also a factor that bother students a lot, specially when they want to enjoy their days spending time outside. For both months, the trend is basically very humid mornings and nights. August is overall more humid. Wind is a factor that can help with humid days because it may refresh the environment every once and then. The problem is that in both months, theres a trend that shows that the days with the highest humidity percentage, were the ones with the lowest wind speed. Therefore, really humid days came with almost no wind at all which probably made the apparent temperatures higher.

cleanWeather2017 %>% group_by(HOUR) %>% summarise(MeanTemp=mean(apparentTemperature))

## # A tibble: 24 x 2
##     HOUR MeanTemp
##    <int>    <dbl>
##  1     0     59.7
##  2     1     58.8
##  3     2     58.0
##  4     3     57.4
##  5     4     56.7
##  6     5     56.1
##  7     6     55.6
##  8     7     55.6
##  9     8     58.1
## 10     9     61.4
## # ... with 14 more rows
…
In 2018 we found that 96% of students that stayed at Loras. This may have been due to majority of the days, humidity was at a level higher than 80%, along with the humidity. The windspeed, when there is a high humidity level, was on average below 10.

cleanWeather2018 %>% group_by(HOUR) %>% summarise(MeanTemp=mean(apparentTemperature))

## # A tibble: 24 x 2
##     HOUR MeanTemp
##    <int>    <dbl>
##  1     0     67.2
##  2     1     66.6
##  3     2     65.7
##  4     3     64.9
##  5     4     64.3
##  6     5     63.8
##  7     6     63.3
##  8     7     63.3
##  9     8     65.0
## 10     9     67.8
## # ... with 14 more rows
…
2019 saw the least amount of people leave within the four year analysis with a total of 6. This could be in part due to the low highs averaging throughout the day for the apparent temperatures in August and September. While the average humidity levels remained high through some days, other saw drops. Along with low wind speeds and high humidity, living conditions could be uncomfortable for some, but as it can be seen, a mojority of the people were able to push through the discomfort and remain at Loras.

cleanWeather2019 %>% group_by(HOUR) %>% summarise(MeanTemp=mean(apparentTemperature))

## # A tibble: 24 x 2
##     HOUR MeanTemp
##    <int>    <dbl>
##  1     0     64.3
##  2     1     63.3
##  3     2     62.5
##  4     3     61.8
##  5     4     61.4
##  6     5     61.0
##  7     6     60.7
##  8     7     60.9
##  9     8     63.1
## 10     9     65.9
## # ... with 14 more rows
…
